[{
  "title": "Exploitation for privilege escalation: Vulnerable sudo version (CVE-2019-14287)",
  "id": "1",
  "description": "CVE 2019-14287",
  "sigmafile": "",
  "sigma": [
    "SELECT * FROM logs WHERE ((type = 'EXECVE' )) AND a1 LIKE '-u#%'"
  ],
  "rule_level": "high",
  "tags": [
    "attack.privilege_escalation",
    "attack.t1068"
  ],
  "count": 1,
  "matches": [
    {
      "row_id": 3126,
      "host": "offline",
      "OriginalLogfile": "audit.log-IJPJGDML.json",
      "type": "EXECVE",
      "timestamp": "2023-04-12 17:15:39",
      "a0": "sudo",
      "a1": "-u#-1",
      "a2": "/bin/bash\n",
      "argc": "3"
    }
  ]
},
{
  "title": "Unsecured Credentials: Passwords in txt file",
  "id": "5",
  "description": "Detects accessing the important.txt file with any command.",
  "sigmafile": "",
  "sigma": [
    "SELECT * FROM logs WHERE ((type = 'EXECVE' )) AND a1 LIKE '%important.txt%'"
  ],
  "rule_level": "medium",
  "tags": [
    "attack.credential_access",
    "attack.t1552"
  ],
  "count": 5,
  "matches": [
    {
      "row_id": 867,
      "host": "offline",
      "OriginalLogfile": "audit.log-IJPJGDML.json",
      "type": "EXECVE",
      "timestamp": "2023-04-12 16:53:07",
      "a0": "cat",
      "a1": "../../superuser/important.txt\n",
      "argc": "2"
    },
    {
      "row_id": 897,
      "host": "offline",
      "OriginalLogfile": "audit.log-IJPJGDML.json",
      "type": "EXECVE",
      "timestamp": "2023-04-12 16:53:17",
      "a0": "cat",
      "a1": "../../superuser/important.txt\n",
      "argc": "2"
    },
    {
      "row_id": 921,
      "host": "offline",
      "OriginalLogfile": "audit.log-IJPJGDML.json",
      "type": "EXECVE",
      "timestamp": "2023-04-12 16:53:31",
      "a0": "cat",
      "a1": "../../superuser/important.txt\n",
      "argc": "2"
    },
    {
      "row_id": 1435,
      "host": "offline",
      "OriginalLogfile": "audit.log-IJPJGDML.json",
      "type": "EXECVE",
      "timestamp": "2023-04-12 17:09:47",
      "a0": "more",
      "a1": "important.txt\n",
      "argc": "2"
    },
    {
      "row_id": 3154,
      "host": "offline",
      "OriginalLogfile": "audit.log-IJPJGDML.json",
      "type": "EXECVE",
      "timestamp": "2023-04-12 17:15:51",
      "a0": "cat",
      "a1": "important.txt\n",
      "argc": "2"
    }
  ]
},
{
  "title": "Exploit Public-Facing Application: Website with command injection (easy)",
  "id": "6",
  "description": "Detects access to /home/alice",
  "sigmafile": "",
  "sigma": [
    "SELECT * FROM logs WHERE ((type = 'CWD') AND cwd LIKE '/home/alice_')"
  ],
  "rule_level": "high",
  "tags": [
    "attack.initial_access",
    "attack.t1190"
  ],
  "count": 1,
  "matches": [
    {
      "row_id": 1418,
      "host": "offline",
      "OriginalLogfile": "audit.log-IJPJGDML.json",
      "type": "CWD",
      "timestamp": "2023-04-12 17:09:26",
      "cwd": "/home/alice\n"
    }
  ]
},
{}]