StartTime;Dur;Proto;SrcAddr;Sport;Dir;DstAddr;Dport;State;sTos;dTos;TotPkts;TotBytes;SrcBytes
2023-10-20.21:37:35.917119;0.003553;man;0;0;;0;0;STA;;;0;0;0
2023-04-12.04:34:35.063022;0.000000;ipv6-icmp;fe80::a00:27ff:fea1:a361;0x0085;   ->;ff02::2;0x0000;NRS;102;;1;70;70
2023-04-12.04:34:36.021112;0.000000;ipv6-icmp;fe80::a00:27ff:fed0:a6b0;0x0085;   ->;ff02::2;0x0000;NRS;103;;1;70;70
2023-04-12.04:35:28.568843;0.000000;ipv6-icmp;fe80::a00:27ff:fe10:132c;0x0085;   ->;ff02::2;0x0000;NRS;204;;1;70;70
2023-04-12.04:36:25.522162;0.000000;ipv6-icmp;fe80::a00:27ff:fea1:a361;0x0085;   ->;ff02::2;0x0000;NRS;102;;1;70;70
2023-04-12.04:39:34.545478;0.000000;ipv6-icmp;fe80::a00:27ff:fe08:f53;0x0085;   ->;ff02::2;0x0000;NRS;0;;1;70;70
2023-04-12.04:39:42.045117;0.000000;ipv6-icmp;fe80::a00:27ff:fece:9a4a;0x0085;   ->;ff02::2;0x0000;NRS;0;;1;70;70
2023-04-12.04:39:42.758235;0.000000;ipv6-icmp;fe80::a00:27ff:fed0:a6b0;0x0085;   ->;ff02::2;0x0000;NRS;103;;1;70;70
2023-04-12.04:40:01.566801;0.000000;ipv6-icmp;fe80::a00:27ff:fea1:a361;0x0085;   ->;ff02::2;0x0000;NRS;102;;1;70;70
2023-04-12.04:40:55.493938;0.000000;ipv6-icmp;fe80::a00:27ff:fe8c:b05a;0x0085;   ->;ff02::2;0x0000;NRS;0;;1;70;70
2023-04-12.04:45:12.815961;0.000000;ipv6-icmp;fe80::a00:27ff:fe10:132c;0x0085;   ->;ff02::2;0x0000;NRS;204;;1;70;70
2023-04-12.04:47:28.828771;0.000000;ipv6-icmp;fe80::a00:27ff:fea1:a361;0x0085;   ->;ff02::2;0x0000;NRS;102;;1;70;70
2023-04-12.04:50:01.400716;0.000000;ipv6-icmp;fe80::a00:27ff:fed0:a6b0;0x0085;   ->;ff02::2;0x0000;NRS;103;;1;70;70
2023-04-12.04:54:27.221980;0.000000;ipv6-icmp;fe80::a00:27ff:fece:9a4a;0x0085;   ->;ff02::2;0x0000;NRS;0;;1;70;70
2023-04-12.04:56:14.465227;0.000000;ipv6-icmp;fe80::a00:27ff:fe08:f53;0x0085;   ->;ff02::2;0x0000;NRS;0;;1;70;70
2023-04-12.05:00:35.728854;0.000000;ipv6-icmp;fe80::a00:27ff:fe8c:b05a;0x0085;   ->;ff02::2;0x0000;NRS;0;;1;70;70
2023-04-12.05:02:10.226571;0.000000;ipv6-icmp;fe80::a00:27ff:fea1:a361;0x0085;   ->;ff02::2;0x0000;NRS;102;;1;70;70
2023-04-12.05:05:22.676435;0.000000;ipv6-icmp;fe80::a00:27ff:fe10:132c;0x0085;   ->;ff02::2;0x0000;NRS;204;;1;70;70
2023-04-12.05:10:10.537119;0.000000;ipv6-icmp;fe80::a00:27ff:fed0:a6b0;0x0085;   ->;ff02::2;0x0000;NRS;103;;1;70;70
2023-04-12.05:25:35.928087;0.000000;ipv6-icmp;fe80::a00:27ff:fece:9a4a;0x0085;   ->;ff02::2;0x0000;NRS;0;;1;70;70
2023-04-12.05:30:39.879344;0.000000;ipv6-icmp;fe80::a00:27ff:fe08:f53;0x0085;   ->;ff02::2;0x0000;NRS;0;;1;70;70
2023-04-12.05:30:49.033804;0.000000;ipv6-icmp;fe80::a00:27ff:fea1:a361;0x0085;   ->;ff02::2;0x0000;NRS;102;;1;70;70
2023-04-12.05:37:44.985397;0.000000;ipv6-icmp;fe80::a00:27ff:fe8c:b05a;0x0085;   ->;ff02::2;0x0000;NRS;0;;1;70;70
2023-04-12.05:46:53.628990;0.000000;ipv6-icmp;fe80::a00:27ff:fe10:132c;0x0085;   ->;ff02::2;0x0000;NRS;204;;1;70;70
2023-04-12.05:50:15.391454;0.000000;ipv6-icmp;fe80::a00:27ff:fed0:a6b0;0x0085;   ->;ff02::2;0x0000;NRS;103;;1;70;70
2023-04-12.06:10:05.400851;0.958275;ipv6-icmp;::;0x008f;   ->;ff02::16;0x0000;MHR;0;;2;180;180
2023-04-12.06:10:06.041037;0.000000;ipv6-icmp;::;0x0087;   ->;ff02::1:ff0b:281f;0x0000;NNS;0;;1;86;86
2023-04-12.06:10:07.117545;0.591023;ipv6-icmp;fe80::a00:27ff:fe0b:281f;0x008f;   ->;ff02::16;0x0000;MHR;0;;4;360;360
2023-04-12.06:10:08.917465;3.619082;ipv6-icmp;fe80::a00:27ff:fe0b:281f;0x0085;   ->;ff02::2;0x0000;NRS;159;;2;140;140
2023-04-12.06:10:19.661457;0.000000;ipv6-icmp;fe80::a00:27ff:fe0b:281f;0x0085;   ->;ff02::2;0x0000;NRS;159;;1;70;70
2023-04-12.06:10:34.383195;0.000000;ipv6-icmp;fe80::a00:27ff:fe0b:281f;0x0085;   ->;ff02::2;0x0000;NRS;159;;1;70;70
2023-04-12.06:11:03.221075;0.000000;ipv6-icmp;fe80::a00:27ff:fe0b:281f;0x0085;   ->;ff02::2;0x0000;NRS;159;;1;70;70
2023-04-12.06:11:58.672285;0.000000;ipv6-icmp;fe80::a00:27ff:fe0b:281f;0x0085;   ->;ff02::2;0x0000;NRS;159;;1;70;70
2023-04-12.06:13:49.048493;0.000000;ipv6-icmp;fe80::a00:27ff:fe0b:281f;0x0085;   ->;ff02::2;0x0000;NRS;159;;1;70;70
2023-04-12.06:17:26.319064;0.000000;ipv6-icmp;fe80::a00:27ff:fe0b:281f;0x0085;   ->;ff02::2;0x0000;NRS;159;;1;70;70
2023-04-12.06:20:22.005503;0.345085;ipv6-icmp;fe80::a00:27ff:fed0:a6b0;0x008f;   ->;ff02::16;0x0000;MHR;0;;2;180;180
2023-04-12.06:20:22.986685;4.004222;ipv6-icmp;fe80::a00:27ff:fed0:a6b0;0x0085;   ->;ff02::2;0x0000;NRS;103;;2;140;140
2023-04-12.06:20:34.691298;0.000000;ipv6-icmp;fe80::a00:27ff:fed0:a6b0;0x0085;   ->;ff02::2;0x0000;NRS;103;;1;70;70
2023-04-12.06:20:49.387296;0.000000;ipv6-icmp;fe80::a00:27ff:fed0:a6b0;0x0085;   ->;ff02::2;0x0000;NRS;103;;1;70;70
2023-04-12.06:21:19.602086;0.000000;ipv6-icmp;fe80::a00:27ff:fed0:a6b0;0x0085;   ->;ff02::2;0x0000;NRS;103;;1;70;70
2023-04-12.06:22:22.275223;0.000000;ipv6-icmp;fe80::a00:27ff:fed0:a6b0;0x0085;   ->;ff02::2;0x0000;NRS;103;;1;70;70
2023-04-12.06:24:28.505607;0.000000;ipv6-icmp;fe80::a00:27ff:fed0:a6b0;0x0085;   ->;ff02::2;0x0000;NRS;103;;1;70;70
2023-04-12.06:24:57.501429;0.000000;ipv6-icmp;fe80::a00:27ff:fe0b:281f;0x0085;   ->;ff02::2;0x0000;NRS;159;;1;70;70
2023-04-12.06:25:17.323483;0.000000;ipv6-icmp;fe80::a00:27ff:fea1:a361;0x0085;   ->;ff02::2;0x0000;NRS;102;;1;70;70
2023-04-12.06:26:46.222507;0.000000;ipv6-icmp;fe80::a00:27ff:fece:9a4a;0x0085;   ->;ff02::2;0x0000;NRS;0;;1;70;70
2023-04-12.06:28:31.907936;0.000000;ipv6-icmp;fe80::a00:27ff:fed0:a6b0;0x0085;   ->;ff02::2;0x0000;NRS;103;;1;70;70
2023-04-12.06:31:50.019889;0.000000;ipv6-icmp;fe80::a00:27ff:fe08:f53;0x0085;   ->;ff02::2;0x0000;NRS;0;;1;70;70
2023-04-12.06:36:48.587124;0.000000;ipv6-icmp;fe80::a00:27ff:fed0:a6b0;0x0085;   ->;ff02::2;0x0000;NRS;103;;1;70;70
2023-04-12.06:40:27.971959;0.000000;ipv6-icmp;fe80::a00:27ff:fe0b:281f;0x0085;   ->;ff02::2;0x0000;NRS;159;;1;70;70
2023-04-12.06:43:17.136616;0.000000;ipv6-icmp;fe80::a00:27ff:fe8c:b05a;0x0085;   ->;ff02::2;0x0000;NRS;0;;1;70;70
2023-04-12.06:53:29.625270;0.000000;ipv6-icmp;fe80::a00:27ff:fed0:a6b0;0x0085;   ->;ff02::2;0x0000;NRS;103;;1;70;70
2023-04-12.06:57:28.266799;0.002574;arp;10.35.56.13;;  who;10.35.56.10;;CON;;;2;102;42
2023-04-12.06:57:28.269392;0.013308;udp;10.35.56.13;35370;  <->;8.8.8.8;53;CON;0;0;2;261;100
2023-04-12.06:57:28.270363;0.018724;udp;10.35.56.13;51831;  <->;8.8.8.8;53;CON;0;0;4;504;191
2023-04-12.06:57:28.284219;0.009187;udp;10.35.56.13;40396;  <->;8.8.8.8;53;CON;0;0;2;242;89
2023-04-12.06:57:28.285189;0.014697;udp;10.35.56.13;35465;  <->;8.8.8.8;53;CON;0;0;2;290;89
2023-04-12.06:57:28.290690;0.009196;udp;10.35.56.13;53471;  <->;8.8.8.8;53;CON;0;0;2;244;90
2023-04-12.06:57:28.291503;0.008823;udp;10.35.56.13;42369;  <->;8.8.8.8;53;CON;0;0;2;292;90
2023-04-12.06:57:28.302288;4.356740;tcp;10.35.56.13;57962;   ->;185.125.190.39;80;FIN;0;0;3551;3674150;85911
2023-04-12.06:57:28.302827;1.418380;tcp;10.35.56.13;57976;   ->;185.125.190.39;80;FIN;0;0;6770;8634841;77299
2023-04-12.06:57:29.704698;0.728669;tcp;10.35.56.13;44938;   ->;185.125.190.39;80;FIN;0;0;3463;3439841;98984
2023-04-12.06:57:30.398576;2.262002;tcp;10.35.56.13;44948;   ->;185.125.190.39;80;FIN;0;0;21639;28588036;220590
2023-04-12.06:57:33.458988;0.000037;arp;10.35.56.10;;  who;10.35.56.13;;CON;;;2;102;60
2023-04-12.06:57:37.706219;0.009954;udp;10.35.56.13;48264;  <->;8.8.8.8;53;CON;0;0;2;312;86
2023-04-12.06:57:37.705836;0.009548;udp;10.35.56.13;36026;  <->;8.8.8.8;53;CON;0;0;2;252;86
2023-04-12.06:57:37.724055;0.143966;tcp;10.35.56.13;48808;   ->;34.243.160.129;443;RST;0;0;24;7706;1706
2023-04-12.06:57:40.884590;0.804150;ipv6-icmp;fe80::a00:27ff:fea1:a361;0x008f;   ->;ff02::16;0x0000;MHR;0;;2;180;180
2023-04-12.06:57:41.478643;4.217012;ipv6-icmp;fe80::a00:27ff:fea1:a361;0x0085;   ->;ff02::2;0x0000;NRS;102;;2;140;140
2023-04-12.06:57:54.525857;0.000000;ipv6-icmp;fe80::a00:27ff:fea1:a361;0x0085;   ->;ff02::2;0x0000;NRS;102;;1;70;70
2023-04-12.06:58:11.923697;0.000000;ipv6-icmp;fe80::a00:27ff:fea1:a361;0x0085;   ->;ff02::2;0x0000;NRS;102;;1;70;70
2023-04-12.06:58:45.649719;0.000000;ipv6-icmp;fe80::a00:27ff:fea1:a361;0x0085;   ->;ff02::2;0x0000;NRS;102;;1;70;70
2023-04-12.06:59:54.566660;0.000000;ipv6-icmp;fe80::a00:27ff:fea1:a361;0x0085;   ->;ff02::2;0x0000;NRS;102;;1;70;70
2023-04-12.07:00:03.369759;0.009990;udp;10.35.56.13;39610;  <->;8.8.8.8;53;CON;0;0;2;250;85
2023-04-12.07:00:03.369814;0.009934;udp;10.35.56.13;39610;  <->;8.8.8.8;53;CON;0;0;2;254;85
2023-04-12.07:00:03.383698;0.029561;udp;10.35.56.13;53922;  <->;91.189.94.4;123;CON;16;184;2;180;90
2023-04-12.07:00:08.508804;0.000395;arp;10.35.56.13;;  who;10.35.56.10;;CON;;;2;102;42
2023-04-12.07:00:08.592915;0.000032;arp;10.35.56.10;;  who;10.35.56.13;;CON;;;2;102;60
2023-04-12.07:01:07.480857;0.017306;udp;10.35.56.13;40744;  <->;91.189.94.4;123;CON;16;184;2;180;90
2023-04-12.07:01:12.504767;0.000349;arp;10.35.56.13;;  who;10.35.56.10;;CON;;;2;102;42
2023-04-12.07:01:12.598314;0.000040;arp;10.35.56.10;;  who;10.35.56.13;;CON;;;2;102;60
2023-04-12.07:02:16.016158;0.000000;ipv6-icmp;fe80::a00:27ff:fea1:a361;0x0085;   ->;ff02::2;0x0000;NRS;102;;1;70;70
2023-04-12.07:03:15.729989;0.018661;udp;10.35.56.13;56507;  <->;91.189.94.4;123;CON;16;184;2;180;90
2023-04-12.07:03:20.769460;0.001531;arp;10.35.56.13;;  who;10.35.56.10;;CON;;;2;102;42
2023-04-12.07:03:20.866058;0.000037;arp;10.35.56.10;;  who;10.35.56.13;;CON;;;2;102;60
2023-04-12.07:07:09.703488;0.000000;ipv6-icmp;fe80::a00:27ff:fea1:a361;0x0085;   ->;ff02::2;0x0000;NRS;102;;1;70;70
2023-04-12.07:07:31.966899;0.016934;udp;10.35.56.13;55585;  <->;91.189.94.4;123;CON;16;184;2;180;90
2023-04-12.07:07:37.024151;0.000599;arp;10.35.56.13;;  who;10.35.56.10;;CON;;;2;102;42
2023-04-12.07:07:37.120193;0.000038;arp;10.35.56.10;;  who;10.35.56.13;;CON;;;2;102;60
2023-04-12.07:10:16.867138;0.000000;ipv6-icmp;fe80::a00:27ff:fe0b:281f;0x0085;   ->;ff02::2;0x0000;NRS;159;;1;70;70
2023-04-12.07:16:04.215708;0.017264;udp;10.35.56.13;45929;  <->;91.189.94.4;123;CON;16;184;2;180;90
2023-04-12.07:16:09.272684;0.000719;arp;10.35.56.13;;  who;10.35.56.10;;CON;;;2;102;42
2023-04-12.07:16:09.378981;0.000040;arp;10.35.56.10;;  who;10.35.56.13;;CON;;;2;102;60
2023-04-12.07:16:53.465447;0.000000;ipv6-icmp;fe80::a00:27ff:fea1:a361;0x0085;   ->;ff02::2;0x0000;NRS;102;;1;70;70
2023-04-12.07:23:34.124378;0.000000;ipv6-icmp;fe80::a00:27ff:fece:9a4a;0x0085;   ->;ff02::2;0x0000;NRS;0;;1;70;70
2023-04-12.07:28:11.871331;0.000000;ipv6-icmp;fe80::a00:27ff:fed0:a6b0;0x0085;   ->;ff02::2;0x0000;NRS;103;;1;70;70
2023-04-12.07:33:08.469347;0.017723;udp;10.35.56.13;48878;  <->;91.189.94.4;123;CON;16;184;2;180;90
2023-04-12.07:33:13.528620;0.000329;arp;10.35.56.13;;  who;10.35.56.10;;CON;;;2;102;42
2023-04-12.07:33:13.637928;0.000033;arp;10.35.56.10;;  who;10.35.56.13;;CON;;;2;102;60
2023-04-12.07:36:38.908234;0.000000;ipv6-icmp;fe80::a00:27ff:fea1:a361;0x0085;   ->;ff02::2;0x0000;NRS;102;;1;70;70
2023-04-12.07:39:33.269840;0.000000;ipv6-icmp;fe80::a00:27ff:fe08:f53;0x0085;   ->;ff02::2;0x0000;NRS;0;;1;70;70
2023-04-12.07:46:38.244850;0.000000;ipv6-icmp;fe80::a00:27ff:fe8c:b05a;0x0085;   ->;ff02::2;0x0000;NRS;0;;1;70;70
2023-04-12.08:07:16.717421;0.018517;udp;10.35.56.13;46686;  <->;91.189.94.4;123;CON;16;184;2;180;90
2023-04-12.08:07:21.786256;0.000725;arp;10.35.56.13;;  who;10.35.56.10;;CON;;;2;102;42
2023-04-12.08:07:21.901571;0.000035;arp;10.35.56.10;;  who;10.35.56.13;;CON;;;2;102;60
2023-04-12.08:10:33.319253;0.000000;ipv6-icmp;fe80::a00:27ff:fe0b:281f;0x0085;   ->;ff02::2;0x0000;NRS;159;;1;70;70
2023-04-12.08:16:03.636034;0.000000;ipv6-icmp;fe80::a00:27ff:fea1:a361;0x0085;   ->;ff02::2;0x0000;NRS;102;;1;70;70
2023-04-12.08:22:33.053255;0.000000;ipv6-icmp;fe80::a00:27ff:fece:9a4a;0x0085;   ->;ff02::2;0x0000;NRS;0;;1;70;70
2023-04-12.08:29:44.001245;0.000000;ipv6-icmp;fe80::a00:27ff:fed0:a6b0;0x0085;   ->;ff02::2;0x0000;NRS;103;;1;70;70
2023-04-12.08:40:43.286017;0.000000;ipv6-icmp;fe80::a00:27ff:fe08:f53;0x0085;   ->;ff02::2;0x0000;NRS;0;;1;70;70
2023-04-12.08:41:24.969917;0.062939;udp;10.35.56.13;43098;  <->;91.189.94.4;123;CON;16;184;2;180;90
2023-04-12.08:41:30.040618;0.000406;arp;10.35.56.13;;  who;10.35.56.10;;CON;;;2;102;42
2023-04-12.08:41:30.150841;0.000037;arp;10.35.56.10;;  who;10.35.56.13;;CON;;;2;102;60
2023-04-12.08:45:37.187941;0.000000;ipv6-icmp;fe80::a00:27ff:fe8c:b05a;0x0085;   ->;ff02::2;0x0000;NRS;0;;1;70;70
2023-04-12.09:04:46.151892;0.000000;ipv6-icmp;fe80::a00:27ff:fe0b:281f;0x0085;   ->;ff02::2;0x0000;NRS;159;;1;70;70
2023-04-12.09:15:33.215565;0.018190;udp;10.35.56.13;49049;  <->;91.189.94.4;123;CON;16;184;2;180;90
2023-04-12.09:15:38.300589;0.000549;arp;10.35.56.13;;  who;10.35.56.10;;CON;;;2;102;42
2023-04-12.09:15:38.410055;0.000034;arp;10.35.56.10;;  who;10.35.56.13;;CON;;;2;102;60
2023-04-12.09:19:29.481174;0.000000;ipv6-icmp;fe80::a00:27ff:fea1:a361;0x0085;   ->;ff02::2;0x0000;NRS;102;;1;70;70
2023-04-12.09:25:54.140096;0.000000;ipv6-icmp;fe80::a00:27ff:fece:9a4a;0x0085;   ->;ff02::2;0x0000;NRS;0;;1;70;70
2023-04-12.09:29:48.066154;0.000000;ipv6-icmp;fe80::a00:27ff:fed0:a6b0;0x0085;   ->;ff02::2;0x0000;NRS;103;;1;70;70
2023-04-12.09:39:35.925519;0.000000;arp;10.35.56.10;;  who;10.35.56.11;;INT;;;1;60;60
2023-04-12.09:39:42.222888;0.000000;ipv6-icmp;fe80::a00:27ff:fe08:f53;0x0085;   ->;ff02::2;0x0000;NRS;0;;1;70;70
2023-04-12.09:44:36.144867;0.000000;ipv6-icmp;fe80::a00:27ff:fe8c:b05a;0x0085;   ->;ff02::2;0x0000;NRS;0;;1;70;70
2023-04-12.09:49:41.468670;0.017474;udp;10.35.56.13;59729;  <->;91.189.94.4;123;CON;16;184;2;180;90
2023-04-12.09:49:46.552901;0.000559;arp;10.35.56.13;;  who;10.35.56.10;;CON;;;2;102;42
2023-04-12.09:49:46.660933;0.000036;arp;10.35.56.10;;  who;10.35.56.13;;CON;;;2;102;60
2023-04-12.10:07:20.132156;0.000000;ipv6-icmp;fe80::a00:27ff:fe0b:281f;0x0085;   ->;ff02::2;0x0000;NRS;159;;1;70;70
2023-04-12.10:16:14.486247;0.000000;ipv6-icmp;fe80::a00:27ff:fea1:a361;0x0085;   ->;ff02::2;0x0000;NRS;102;;1;70;70
2023-04-12.10:20:30.934654;0.000000;ipv6-icmp;fe80::a00:27ff:fece:9a4a;0x0085;   ->;ff02::2;0x0000;NRS;0;;1;70;70
2023-04-12.10:23:16.462315;4.336422;tcp;10.35.56.10;40112;   ->;10.35.56.13;22;CON;16;16;42;9597;4272
2023-04-12.10:23:22.978798;3.834138;tcp;10.35.56.10;40112;   ->;10.35.56.13;22;CON;16;16;56;8648;2784
2023-04-12.10:23:28.135842;0.817438;tcp;10.35.56.10;40112;   ->;10.35.56.13;22;FIN;16;16;23;2158;1266
2023-04-12.10:23:49.715644;0.017178;udp;10.35.56.13;57006;  <->;91.189.94.4;123;CON;16;184;2;180;90
2023-04-12.10:23:54.808558;0.000705;arp;10.35.56.13;;  who;10.35.56.10;;CON;;;2;102;42
2023-04-12.10:34:51.150542;0.000000;ipv6-icmp;fe80::a00:27ff:fed0:a6b0;0x0085;   ->;ff02::2;0x0000;NRS;103;;1;70;70
2023-04-12.10:40:52.239360;0.000000;ipv6-icmp;fe80::a00:27ff:fe08:f53;0x0085;   ->;ff02::2;0x0000;NRS;0;;1;70;70
2023-04-12.10:47:57.301541;0.000000;ipv6-icmp;fe80::a00:27ff:fe8c:b05a;0x0085;   ->;ff02::2;0x0000;NRS;0;;1;70;70
2023-04-12.10:57:57.965582;0.024886;udp;10.35.56.13;55646;  <->;91.189.94.4;123;CON;16;184;2;180;90
2023-04-12.10:58:03.064553;0.001356;arp;10.35.56.13;;  who;10.35.56.10;;CON;;;2;102;42
2023-04-12.10:58:03.167681;0.000024;arp;10.35.56.10;;  who;10.35.56.13;;CON;;;2;102;60
2023-04-12.11:08:22.313034;0.000000;ipv6-icmp;fe80::a00:27ff:fe0b:281f;0x0085;   ->;ff02::2;0x0000;NRS;159;;1;70;70
2023-04-12.11:17:18.803804;0.000000;ipv6-icmp;fe80::a00:27ff:fece:9a4a;0x0085;   ->;ff02::2;0x0000;NRS;0;;1;70;70
2023-04-12.11:17:30.849778;0.000000;ipv6-icmp;fe80::a00:27ff:fea1:a361;0x0085;   ->;ff02::2;0x0000;NRS;102;;1;70;70
2023-04-12.11:32:06.215604;0.018171;udp;10.35.56.13;56050;  <->;91.189.94.4;123;CON;16;184;2;180;90
2023-04-12.11:32:11.320544;0.000745;arp;10.35.56.13;;  who;10.35.56.10;;CON;;;2;102;42
2023-04-12.11:32:11.418172;0.000041;arp;10.35.56.10;;  who;10.35.56.13;;CON;;;2;102;60
2023-04-12.11:37:40.108861;0.000000;ipv6-icmp;fe80::a00:27ff:fe08:f53;0x0085;   ->;ff02::2;0x0000;NRS;0;;1;70;70
2023-04-12.11:38:24.559491;0.000000;ipv6-icmp;fe80::a00:27ff:fed0:a6b0;0x0085;   ->;ff02::2;0x0000;NRS;103;;1;70;70
2023-04-12.11:46:56.155611;0.000000;ipv6-icmp;fe80::a00:27ff:fe8c:b05a;0x0085;   ->;ff02::2;0x0000;NRS;0;;1;70;70
2023-04-12.12:04:20.184142;0.000000;ipv6-icmp;fe80::a00:27ff:fe0b:281f;0x0085;   ->;ff02::2;0x0000;NRS;159;;1;70;70
2023-04-12.12:06:14.465634;0.018073;udp;10.35.56.13;48786;  <->;91.189.94.4;123;CON;16;184;2;180;90
2023-04-12.12:06:19.582605;0.001347;arp;10.35.56.13;;  who;10.35.56.10;;CON;;;2;102;42
2023-04-12.12:06:19.676855;0.000040;arp;10.35.56.10;;  who;10.35.56.13;;CON;;;2;102;60
2023-04-12.12:14:05.932742;0.000000;ipv6-icmp;fe80::a00:27ff:fea1:a361;0x0085;   ->;ff02::2;0x0000;NRS;102;;1;70;70
2023-04-12.12:25:02.040128;0.000000;ipv6-icmp;fe80::a00:27ff:fece:9a4a;0x0085;   ->;ff02::2;0x0000;NRS;0;;1;70;70
2023-04-12.12:34:27.984610;0.000000;ipv6-icmp;fe80::a00:27ff:fe08:f53;0x0085;   ->;ff02::2;0x0000;NRS;0;;1;70;70
2023-04-12.12:37:31.131534;0.021286;udp;10.35.56.13;55173;  <->;8.8.8.8;53;CON;0;0;2;238;87
2023-04-12.12:37:31.131948;0.023162;udp;10.35.56.13;45616;  <->;8.8.8.8;53;CON;0;0;2;238;87
2023-04-12.12:37:31.155696;0.839052;tcp;10.35.56.13;38754;   ->;185.125.188.59;443;CON;0;0;51;32609;11118
2023-04-12.12:37:32.204376;0.009760;udp;10.35.56.13;34007;  <->;8.8.8.8;53;CON;0;0;2;238;87
2023-04-12.12:37:32.214703;0.206290;tcp;10.35.56.13;55886;   ->;185.125.188.58;443;CON;0;0;21;7777;2278
2023-04-12.12:37:32.422082;0.015734;udp;10.35.56.13;49981;  <->;8.8.8.8;53;CON;0;0;2;283;111
2023-04-12.12:37:32.421817;0.015999;udp;10.35.56.13;49448;  <->;8.8.8.8;53;CON;0;0;2;254;111
2023-04-12.12:37:32.438819;2.714130;tcp;10.35.56.13;50362;   ->;91.189.91.43;443;CON;0;0;15445;19035117;238640
2023-04-12.12:37:36.157320;0.001082;arp;10.35.56.10;;  who;10.35.56.13;;CON;;;2;102;60
2023-04-12.12:37:36.603877;3.980518;tcp;10.35.56.13;38754;   ->;185.125.188.59;443;RST;0;0;18;10718;3917
2023-04-12.12:37:37.419207;0.023490;tcp;10.35.56.13;55886;   ->;185.125.188.58;443;RST;0;0;7;498;222
2023-04-12.12:37:40.557175;0.091708;tcp;10.35.56.13;50362;   ->;91.189.91.43;443;FIN;0;0;3;198;132
2023-04-12.12:37:46.006724;0.011582;udp;10.35.56.13;59248;  <->;8.8.8.8;53;CON;0;0;2;238;87
2023-04-12.12:37:46.007782;0.010524;udp;10.35.56.13;57659;  <->;8.8.8.8;53;CON;0;0;2;238;87
2023-04-12.12:37:46.020887;0.187714;tcp;10.35.56.13;35032;   ->;185.125.188.58;443;CON;0;0;22;7835;2276
2023-04-12.12:37:46.209909;0.017741;udp;10.35.56.13;52944;  <->;8.8.8.8;53;CON;0;0;2;270;111
2023-04-12.12:37:46.210141;0.029105;udp;10.35.56.13;44414;  <->;8.8.8.8;53;CON;0;0;2;283;111
2023-04-12.12:37:46.239960;0.579583;tcp;10.35.56.13;33114;   ->;185.125.190.26;443;CON;0;0;3014;3632375;43192
2023-04-12.12:37:48.895894;0.037124;udp;10.35.56.13;34657;  <->;8.8.8.8;53;CON;0;0;2;238;87
2023-04-12.12:37:48.936823;4.930476;tcp;10.35.56.13;47602;   ->;185.125.188.59;443;CON;0;0;34;18214;7409
2023-04-12.12:37:51.206878;0.051902;tcp;10.35.56.13;35032;   ->;185.125.188.58;443;RST;0;0;6;438;222
2023-04-12.12:37:54.088366;0.000300;tcp;10.35.56.13;47602;   ->;185.125.188.59;443;CON;0;0;6;4810;132
2023-04-12.12:37:59.105853;0.035799;tcp;10.35.56.13;47602;   ->;185.125.188.59;443;RST;0;0;6;438;222
2023-04-12.12:38:01.867171;0.033237;tcp;10.35.56.13;33114;   ->;185.125.190.26;443;CON;0;0;2;132;66
2023-04-12.12:38:17.016525;0.025798;tcp;10.35.56.13;33114;   ->;185.125.190.26;443;CON;0;0;2;132;66
2023-04-12.12:38:32.126176;4.663661;tcp;10.35.56.13;33114;   ->;185.125.190.26;443;RST;0;0;9;630;288
2023-04-12.12:38:37.340915;0.000036;arp;10.35.56.10;;  who;10.35.56.13;;CON;;;2;102;60
2023-04-12.12:38:41.853988;0.000766;arp;10.35.56.13;;  who;10.35.56.10;;CON;;;2;102;42
2023-04-12.12:39:38.316778;0.000000;ipv6-icmp;fe80::a00:27ff:fed0:a6b0;0x0085;   ->;ff02::2;0x0000;NRS;103;;1;70;70
2023-04-12.12:40:22.715528;0.018393;udp;10.35.56.13;36378;  <->;91.189.94.4;123;CON;16;184;2;180;90
2023-04-12.12:40:27.832552;0.000424;arp;10.35.56.13;;  who;10.35.56.10;;CON;;;2;102;42
2023-04-12.12:40:27.936566;0.000039;arp;10.35.56.10;;  who;10.35.56.13;;CON;;;2;102;60
2023-04-12.12:48:06.172328;0.000000;ipv6-icmp;fe80::a00:27ff:fe8c:b05a;0x0085;   ->;ff02::2;0x0000;NRS;0;;1;70;70
2023-04-12.13:06:18.637590;0.000000;ipv6-icmp;fe80::a00:27ff:fe0b:281f;0x0085;   ->;ff02::2;0x0000;NRS;159;;1;70;70
2023-04-12.13:14:30.965573;0.017578;udp;10.35.56.13;44930;  <->;91.189.94.4;123;CON;16;184;2;180;90
2023-04-12.13:14:36.095776;0.000880;arp;10.35.56.13;;  who;10.35.56.10;;CON;;;2;102;42
2023-04-12.13:14:36.205479;0.000032;arp;10.35.56.10;;  who;10.35.56.13;;CON;;;2;102;60
2023-04-12.13:18:30.861042;0.000000;ipv6-icmp;fe80::a00:27ff:fea1:a361;0x0085;   ->;ff02::2;0x0000;NRS;102;;1;70;70
2023-04-12.13:26:12.057108;0.000000;ipv6-icmp;fe80::a00:27ff:fece:9a4a;0x0085;   ->;ff02::2;0x0000;NRS;0;;1;70;70
2023-04-12.13:37:49.071969;0.000000;ipv6-icmp;fe80::a00:27ff:fe08:f53;0x0085;   ->;ff02::2;0x0000;NRS;0;;1;70;70
2023-04-12.13:42:46.295290;0.000000;ipv6-icmp;fe80::a00:27ff:fed0:a6b0;0x0085;   ->;ff02::2;0x0000;NRS;103;;1;70;70
2023-04-12.13:48:39.215531;0.018877;udp;10.35.56.13;54427;  <->;91.189.94.4;123;CON;16;184;2;180;90
2023-04-12.13:48:44.383140;0.000828;arp;10.35.56.13;;  who;10.35.56.10;;CON;;;2;102;42
2023-04-12.13:48:44.447774;0.000028;arp;10.35.56.10;;  who;10.35.56.13;;CON;;;2;102;60
2023-04-12.13:51:27.260325;0.000000;ipv6-icmp;fe80::a00:27ff:fe8c:b05a;0x0085;   ->;ff02::2;0x0000;NRS;0;;1;70;70
2023-04-12.14:09:26.241197;0.000000;ipv6-icmp;fe80::a00:27ff:fe0b:281f;0x0085;   ->;ff02::2;0x0000;NRS;159;;1;70;70
2023-04-12.14:15:36.739157;0.000000;ipv6-icmp;fe80::a00:27ff:fea1:a361;0x0085;   ->;ff02::2;0x0000;NRS;102;;1;70;70
2023-04-12.14:22:47.465508;0.022889;udp;10.35.56.13;42857;  <->;91.189.94.4;123;CON;16;184;2;180;90
2023-04-12.14:22:52.600545;0.002092;arp;10.35.56.13;;  who;10.35.56.10;;CON;;;2;102;42
2023-04-12.14:22:52.697794;0.000036;arp;10.35.56.10;;  who;10.35.56.13;;CON;;;2;102;60
2023-04-12.14:25:10.996333;0.000000;ipv6-icmp;fe80::a00:27ff:fece:9a4a;0x0085;   ->;ff02::2;0x0000;NRS;0;;1;70;70
2023-04-12.14:36:48.012169;0.000000;ipv6-icmp;fe80::a00:27ff:fe08:f53;0x0085;   ->;ff02::2;0x0000;NRS;0;;1;70;70
2023-04-12.14:38:22.848877;0.000000;ipv6-icmp;fe80::a00:27ff:fed0:a6b0;0x0085;   ->;ff02::2;0x0000;NRS;103;;1;70;70
2023-04-12.14:52:37.271965;0.000000;ipv6-icmp;fe80::a00:27ff:fe8c:b05a;0x0085;   ->;ff02::2;0x0000;NRS;0;;1;70;70
2023-10-20.21:37:36.922056;1.008490;man;0;0;;106;1;STP;;;0;11339004;0
