[{
  "title": "Exploitation for privilege escalation: Vulnerable pkexec process",
  "id": "3",
  "description": " CVE-2021-4034",
  "sigmafile": "",
  "sigma": [
    "SELECT * FROM logs WHERE  ((type = 'EXECVE' )) AND a0 LIKE '%pkexec%'"
  ],
  "rule_level": "high",
  "tags": [
    "attack.privilege_escalation",
    "attack.t1068"
  ],
  "count": 2,
  "matches": [
    {
      "row_id": 2555,
      "host": "offline",
      "OriginalLogfile": "audit.log-8NFYFRAF.json",
      "type": "EXECVE",
      "timestamp": "2023-04-12 17:15:24",
      "a0": ".pkexec\n",
      "argc": "0"
    },
    {
      "row_id": 3957,
      "host": "offline",
      "OriginalLogfile": "audit.log-8NFYFRAF.json",
      "type": "EXECVE",
      "timestamp": "2023-04-12 17:51:41",
      "a0": ".pkexec\n",
      "argc": "0"
    }
  ]
},
{
  "title": "Unsecured Credentials: Passwords in .bash_history",
  "id": "4",
  "description": "Detects accessing the .bash_history file with any command.",
  "sigmafile": "",
  "sigma": [
    "SELECT * FROM logs WHERE ((type = 'EXECVE' )) AND a1 LIKE '%.bash_history%'"
  ],
  "rule_level": "medium",
  "tags": [
    "attack.credential_access",
    "attack.t1552"
  ],
  "count": 6,
  "matches": [
    {
      "row_id": 2910,
      "host": "offline",
      "OriginalLogfile": "audit.log-8NFYFRAF.json",
      "type": "EXECVE",
      "timestamp": "2023-04-12 17:22:24",
      "a0": "cat",
      "a1": ".bash_history\n",
      "argc": "2"
    },
    {
      "row_id": 2940,
      "host": "offline",
      "OriginalLogfile": "audit.log-8NFYFRAF.json",
      "type": "EXECVE",
      "timestamp": "2023-04-12 17:24:45",
      "a0": "cat",
      "a1": ".bash_history\n",
      "argc": "2"
    },
    {
      "row_id": 2976,
      "host": "offline",
      "OriginalLogfile": "audit.log-8NFYFRAF.json",
      "type": "EXECVE",
      "timestamp": "2023-04-12 17:26:30",
      "a0": "cat",
      "a1": ".bash_history\n",
      "argc": "2"
    },
    {
      "row_id": 3812,
      "host": "offline",
      "OriginalLogfile": "audit.log-8NFYFRAF.json",
      "type": "EXECVE",
      "timestamp": "2023-04-12 17:50:49",
      "a0": "cat",
      "a1": ".bash_history\n",
      "argc": "2"
    },
    {
      "row_id": 3863,
      "host": "offline",
      "OriginalLogfile": "audit.log-8NFYFRAF.json",
      "type": "EXECVE",
      "timestamp": "2023-04-12 17:51:19",
      "a0": "cat",
      "a1": ".bash_history\n",
      "argc": "2"
    },
    {
      "row_id": 4042,
      "host": "offline",
      "OriginalLogfile": "audit.log-8NFYFRAF.json",
      "type": "EXECVE",
      "timestamp": "2023-04-12 17:51:56",
      "a0": "cat",
      "a1": ".bash_history\n",
      "argc": "2"
    }
  ]
},
{
  "title": "Exploit Public-Facing Application: Website with command injection (medium)",
  "id": "7",
  "description": "Detects chmod in uploaded images or command related to jpg file.",
  "sigmafile": "",
  "sigma": [
    "SELECT * FROM logs WHERE (type = 'EXECVE' ) AND ((a0 LIKE '%chmod%' AND a2 LIKE '%./public/images/%') OR (a1 LIKE '%.jpg%'))"
  ],
  "rule_level": "high",
  "tags": [
    "attack.initial_access",
    "attack.t1190"
  ],
  "count": 13,
  "matches": [
    {
      "row_id": 905,
      "host": "offline",
      "OriginalLogfile": "audit.log-8NFYFRAF.json",
      "type": "EXECVE",
      "timestamp": "2023-04-12 16:57:20",
      "a0": "python3",
      "a1": "oui.jpg\n",
      "argc": "2"
    },
    {
      "row_id": 927,
      "host": "offline",
      "OriginalLogfile": "audit.log-8NFYFRAF.json",
      "type": "EXECVE",
      "timestamp": "2023-04-12 16:58:08",
      "a0": "python",
      "a1": "yay.jpg\n",
      "argc": "2"
    },
    {
      "row_id": 1023,
      "host": "offline",
      "OriginalLogfile": "audit.log-8NFYFRAF.json",
      "type": "EXECVE",
      "timestamp": "2023-04-12 16:58:44",
      "a0": "mv",
      "a1": "yay.jpg",
      "a2": "yay.py\n",
      "argc": "3"
    },
    {
      "row_id": 1766,
      "host": "offline",
      "OriginalLogfile": "audit.log-8NFYFRAF.json",
      "type": "EXECVE",
      "timestamp": "2023-04-12 17:07:42",
      "a0": "chmod",
      "a1": "+x",
      "a2": "./public/images/toto/oui.jpg\n",
      "argc": "3"
    },
    {
      "row_id": 1791,
      "host": "offline",
      "OriginalLogfile": "audit.log-8NFYFRAF.json",
      "type": "EXECVE",
      "timestamp": "2023-04-12 17:07:50",
      "a0": "chmod",
      "a1": "+x",
      "a2": "./public/images/toto/oui.jpg\n",
      "argc": "3"
    },
    {
      "row_id": 1833,
      "host": "offline",
      "OriginalLogfile": "audit.log-8NFYFRAF.json",
      "type": "EXECVE",
      "timestamp": "2023-04-12 17:08:04",
      "a0": "/bin/sh",
      "a1": "./public/images/toto/oui.jpg\n",
      "argc": "2"
    },
    {
      "row_id": 1947,
      "host": "offline",
      "OriginalLogfile": "audit.log-8NFYFRAF.json",
      "type": "EXECVE",
      "timestamp": "2023-04-12 17:08:04",
      "a0": "/bin/sh",
      "a1": "./public/images/toto/oui.jpg\n",
      "argc": "2"
    },
    {
      "row_id": 1989,
      "host": "offline",
      "OriginalLogfile": "audit.log-8NFYFRAF.json",
      "type": "EXECVE",
      "timestamp": "2023-04-12 17:08:06",
      "a0": "/bin/sh",
      "a1": "./public/images/toto/oui.jpg\n",
      "argc": "2"
    },
    {
      "row_id": 2043,
      "host": "offline",
      "OriginalLogfile": "audit.log-8NFYFRAF.json",
      "type": "EXECVE",
      "timestamp": "2023-04-12 17:08:07",
      "a0": "/bin/sh",
      "a1": "./public/images/toto/oui.jpg\n",
      "argc": "2"
    },
    {
      "row_id": 2142,
      "host": "offline",
      "OriginalLogfile": "audit.log-8NFYFRAF.json",
      "type": "EXECVE",
      "timestamp": "2023-04-12 17:09:14",
      "a0": "/bin/sh",
      "a1": "./public/images/toto/oui.jpg\n",
      "argc": "2"
    },
    {
      "row_id": 3526,
      "host": "offline",
      "OriginalLogfile": "audit.log-8NFYFRAF.json",
      "type": "EXECVE",
      "timestamp": "2023-04-12 17:44:38",
      "a0": "/bin/sh",
      "a1": "./public/images/toto/oui.jpg\n",
      "argc": "2"
    },
    {
      "row_id": 3610,
      "host": "offline",
      "OriginalLogfile": "audit.log-8NFYFRAF.json",
      "type": "EXECVE",
      "timestamp": "2023-04-12 17:46:24",
      "a0": "/bin/sh",
      "a1": "./public/images/toto/oui.jpg\n",
      "argc": "2"
    },
    {
      "row_id": 3682,
      "host": "offline",
      "OriginalLogfile": "audit.log-8NFYFRAF.json",
      "type": "EXECVE",
      "timestamp": "2023-04-12 17:48:11",
      "a0": "/bin/sh",
      "a1": "./public/images/toto/oui.jpg\n",
      "argc": "2"
    }
  ]
},
{
  "title": "Exploit Public-Facing Application: Website with command injection (easy)",
  "id": "6",
  "description": "Detects access to /home/alice",
  "sigmafile": "",
  "sigma": [
    "SELECT * FROM logs WHERE ((type = 'CWD') AND cwd LIKE '/home/alice_')"
  ],
  "rule_level": "high",
  "tags": [
    "attack.initial_access",
    "attack.t1190"
  ],
  "count": 42,
  "matches": [
    {
      "row_id": 2074,
      "host": "offline",
      "OriginalLogfile": "audit.log-8NFYFRAF.json",
      "type": "CWD",
      "timestamp": "2023-04-12 17:08:39",
      "cwd": "/home/alice\n"
    },
    {
      "row_id": 2723,
      "host": "offline",
      "OriginalLogfile": "audit.log-8NFYFRAF.json",
      "type": "CWD",
      "timestamp": "2023-04-12 17:17:11",
      "cwd": "/home/alice\n"
    },
    {
      "row_id": 2863,
      "host": "offline",
      "OriginalLogfile": "audit.log-8NFYFRAF.json",
      "type": "CWD",
      "timestamp": "2023-04-12 17:21:32",
      "cwd": "/home/alice\n"
    },
    {
      "row_id": 2869,
      "host": "offline",
      "OriginalLogfile": "audit.log-8NFYFRAF.json",
      "type": "CWD",
      "timestamp": "2023-04-12 17:21:33",
      "cwd": "/home/alice\n"
    },
    {
      "row_id": 3569,
      "host": "offline",
      "OriginalLogfile": "audit.log-8NFYFRAF.json",
      "type": "CWD",
      "timestamp": "2023-04-12 17:45:49",
      "cwd": "/home/alice\n"
    },
    {
      "row_id": 3575,
      "host": "offline",
      "OriginalLogfile": "audit.log-8NFYFRAF.json",
      "type": "CWD",
      "timestamp": "2023-04-12 17:45:54",
      "cwd": "/home/alice\n"
    },
    {
      "row_id": 3581,
      "host": "offline",
      "OriginalLogfile": "audit.log-8NFYFRAF.json",
      "type": "CWD",
      "timestamp": "2023-04-12 17:46:04",
      "cwd": "/home/alice\n"
    },
    {
      "row_id": 3641,
      "host": "offline",
      "OriginalLogfile": "audit.log-8NFYFRAF.json",
      "type": "CWD",
      "timestamp": "2023-04-12 17:46:52",
      "cwd": "/home/alice\n"
    },
    {
      "row_id": 3647,
      "host": "offline",
      "OriginalLogfile": "audit.log-8NFYFRAF.json",
      "type": "CWD",
      "timestamp": "2023-04-12 17:47:02",
      "cwd": "/home/alice\n"
    },
    {
      "row_id": 3653,
      "host": "offline",
      "OriginalLogfile": "audit.log-8NFYFRAF.json",
      "type": "CWD",
      "timestamp": "2023-04-12 17:47:05",
      "cwd": "/home/alice\n"
    },
    {
      "row_id": 3659,
      "host": "offline",
      "OriginalLogfile": "audit.log-8NFYFRAF.json",
      "type": "CWD",
      "timestamp": "2023-04-12 17:47:39",
      "cwd": "/home/alice\n"
    },
    {
      "row_id": 3719,
      "host": "offline",
      "OriginalLogfile": "audit.log-8NFYFRAF.json",
      "type": "CWD",
      "timestamp": "2023-04-12 17:48:15",
      "cwd": "/home/alice\n"
    },
    {
      "row_id": 3725,
      "host": "offline",
      "OriginalLogfile": "audit.log-8NFYFRAF.json",
      "type": "CWD",
      "timestamp": "2023-04-12 17:48:19",
      "cwd": "/home/alice\n"
    },
    {
      "row_id": 3731,
      "host": "offline",
      "OriginalLogfile": "audit.log-8NFYFRAF.json",
      "type": "CWD",
      "timestamp": "2023-04-12 17:48:29",
      "cwd": "/home/alice\n"
    },
    {
      "row_id": 3783,
      "host": "offline",
      "OriginalLogfile": "audit.log-8NFYFRAF.json",
      "type": "CWD",
      "timestamp": "2023-04-12 17:50:28",
      "cwd": "/home/alice\n"
    },
    {
      "row_id": 3915,
      "host": "offline",
      "OriginalLogfile": "audit.log-8NFYFRAF.json",
      "type": "CWD",
      "timestamp": "2023-04-12 17:51:38",
      "cwd": "/home/alice\n"
    },
    {
      "row_id": 3921,
      "host": "offline",
      "OriginalLogfile": "audit.log-8NFYFRAF.json",
      "type": "CWD",
      "timestamp": "2023-04-12 17:51:40",
      "cwd": "/home/alice\n"
    },
    {
      "row_id": 3927,
      "host": "offline",
      "OriginalLogfile": "audit.log-8NFYFRAF.json",
      "type": "CWD",
      "timestamp": "2023-04-12 17:51:40",
      "cwd": "/home/alice\n"
    },
    {
      "row_id": 3933,
      "host": "offline",
      "OriginalLogfile": "audit.log-8NFYFRAF.json",
      "type": "CWD",
      "timestamp": "2023-04-12 17:51:40",
      "cwd": "/home/alice\n"
    },
    {
      "row_id": 3939,
      "host": "offline",
      "OriginalLogfile": "audit.log-8NFYFRAF.json",
      "type": "CWD",
      "timestamp": "2023-04-12 17:51:41",
      "cwd": "/home/alice\n"
    },
    {
      "row_id": 3945,
      "host": "offline",
      "OriginalLogfile": "audit.log-8NFYFRAF.json",
      "type": "CWD",
      "timestamp": "2023-04-12 17:51:41",
      "cwd": "/home/alice\n"
    },
    {
      "row_id": 3951,
      "host": "offline",
      "OriginalLogfile": "audit.log-8NFYFRAF.json",
      "type": "CWD",
      "timestamp": "2023-04-12 17:51:41",
      "cwd": "/home/alice\n"
    },
    {
      "row_id": 3958,
      "host": "offline",
      "OriginalLogfile": "audit.log-8NFYFRAF.json",
      "type": "CWD",
      "timestamp": "2023-04-12 17:51:41",
      "cwd": "/home/alice\n"
    },
    {
      "row_id": 3964,
      "host": "offline",
      "OriginalLogfile": "audit.log-8NFYFRAF.json",
      "type": "CWD",
      "timestamp": "2023-04-12 17:51:41",
      "cwd": "/home/alice\n"
    },
    {
      "row_id": 3970,
      "host": "offline",
      "OriginalLogfile": "audit.log-8NFYFRAF.json",
      "type": "CWD",
      "timestamp": "2023-04-12 17:51:41",
      "cwd": "/home/alice\n"
    },
    {
      "row_id": 3976,
      "host": "offline",
      "OriginalLogfile": "audit.log-8NFYFRAF.json",
      "type": "CWD",
      "timestamp": "2023-04-12 17:51:41",
      "cwd": "/home/alice\n"
    },
    {
      "row_id": 3982,
      "host": "offline",
      "OriginalLogfile": "audit.log-8NFYFRAF.json",
      "type": "CWD",
      "timestamp": "2023-04-12 17:51:41",
      "cwd": "/home/alice\n"
    },
    {
      "row_id": 3988,
      "host": "offline",
      "OriginalLogfile": "audit.log-8NFYFRAF.json",
      "type": "CWD",
      "timestamp": "2023-04-12 17:51:41",
      "cwd": "/home/alice\n"
    },
    {
      "row_id": 3995,
      "host": "offline",
      "OriginalLogfile": "audit.log-8NFYFRAF.json",
      "type": "CWD",
      "timestamp": "2023-04-12 17:51:41",
      "cwd": "/home/alice\n"
    },
    {
      "row_id": 4001,
      "host": "offline",
      "OriginalLogfile": "audit.log-8NFYFRAF.json",
      "type": "CWD",
      "timestamp": "2023-04-12 17:51:41",
      "cwd": "/home/alice\n"
    },
    {
      "row_id": 4007,
      "host": "offline",
      "OriginalLogfile": "audit.log-8NFYFRAF.json",
      "type": "CWD",
      "timestamp": "2023-04-12 17:51:41",
      "cwd": "/home/alice\n"
    },
    {
      "row_id": 4013,
      "host": "offline",
      "OriginalLogfile": "audit.log-8NFYFRAF.json",
      "type": "CWD",
      "timestamp": "2023-04-12 17:51:41",
      "cwd": "/home/alice\n"
    },
    {
      "row_id": 4019,
      "host": "offline",
      "OriginalLogfile": "audit.log-8NFYFRAF.json",
      "type": "CWD",
      "timestamp": "2023-04-12 17:51:42",
      "cwd": "/home/alice\n"
    },
    {
      "row_id": 4025,
      "host": "offline",
      "OriginalLogfile": "audit.log-8NFYFRAF.json",
      "type": "CWD",
      "timestamp": "2023-04-12 17:51:43",
      "cwd": "/home/alice\n"
    },
    {
      "row_id": 4061,
      "host": "offline",
      "OriginalLogfile": "audit.log-8NFYFRAF.json",
      "type": "CWD",
      "timestamp": "2023-04-12 17:52:11",
      "cwd": "/home/alice\n"
    },
    {
      "row_id": 4067,
      "host": "offline",
      "OriginalLogfile": "audit.log-8NFYFRAF.json",
      "type": "CWD",
      "timestamp": "2023-04-12 17:52:25",
      "cwd": "/home/alice\n"
    },
    {
      "row_id": 4073,
      "host": "offline",
      "OriginalLogfile": "audit.log-8NFYFRAF.json",
      "type": "CWD",
      "timestamp": "2023-04-12 17:54:38",
      "cwd": "/home/alice\n"
    },
    {
      "row_id": 4114,
      "host": "offline",
      "OriginalLogfile": "audit.log-8NFYFRAF.json",
      "type": "CWD",
      "timestamp": "2023-04-12 17:54:38",
      "cwd": "/home/alice\n"
    },
    {
      "row_id": 4118,
      "host": "offline",
      "OriginalLogfile": "audit.log-8NFYFRAF.json",
      "type": "CWD",
      "timestamp": "2023-04-12 17:54:38",
      "cwd": "/home/alice\n"
    },
    {
      "row_id": 4122,
      "host": "offline",
      "OriginalLogfile": "audit.log-8NFYFRAF.json",
      "type": "CWD",
      "timestamp": "2023-04-12 17:54:38",
      "cwd": "/home/alice\n"
    },
    {
      "row_id": 4177,
      "host": "offline",
      "OriginalLogfile": "audit.log-8NFYFRAF.json",
      "type": "CWD",
      "timestamp": "2023-04-12 17:54:38",
      "cwd": "/home/alice\n"
    },
    {
      "row_id": 4220,
      "host": "offline",
      "OriginalLogfile": "audit.log-8NFYFRAF.json",
      "type": "CWD",
      "timestamp": "2023-04-12 17:56:16",
      "cwd": "/home/alice\n"
    }
  ]
},
{}]