StartTime;Dur;Proto;SrcAddr;Sport;Dir;DstAddr;Dport;State;sTos;dTos;TotPkts;TotBytes;SrcBytes
2023-10-20.21:32:55.677329;0.003350;man;0;0;;0;0;STA;;;0;0;0
2023-04-12.08:02:17.024430;0.000000;ipv6-icmp;fe80::a00:27ff:fe42:90c6;0x0085;   ->;ff02::2;0x0000;NRS;221;;1;70;70
2023-04-12.08:03:21.577744;0.000000;ipv6-icmp;fe80::a00:27ff:fe76:b047;0x0085;   ->;ff02::2;0x0000;NRS;0;;1;70;70
2023-04-12.08:05:14.096123;0.000000;ipv6-icmp;fe80::a00:27ff:fe6a:3ef;0x0085;   ->;ff02::2;0x0000;NRS;0;;1;70;70
2023-04-12.08:07:14.728220;0.000000;ipv6-icmp;fe80::a00:27ff:fe42:90c6;0x0085;   ->;ff02::2;0x0000;NRS;221;;1;70;70
2023-04-12.08:08:31.649370;0.000000;ipv6-icmp;fe80::a00:27ff:fe40:aa65;0x0085;   ->;ff02::2;0x0000;NRS;0;;1;70;70
2023-04-12.08:16:43.556041;0.000000;ipv6-icmp;fe80::a00:27ff:fe1e:90c1;0x0085;   ->;ff02::2;0x0000;NRS;0;;1;70;70
2023-04-12.08:16:45.401819;0.000000;ipv6-icmp;fe80::a00:27ff:fe42:90c6;0x0085;   ->;ff02::2;0x0000;NRS;221;;1;70;70
2023-04-12.08:26:49.923517;0.000000;ipv6-icmp;fe80::a00:27ff:fe40:aa65;0x0085;   ->;ff02::2;0x0000;NRS;0;;1;70;70
2023-04-12.08:33:57.499045;0.000000;ipv6-icmp;fe80::a00:27ff:fe76:b047;0x0085;   ->;ff02::2;0x0000;NRS;0;;1;70;70
2023-04-12.08:35:56.772086;0.000000;ipv6-icmp;fe80::a00:27ff:fe42:90c6;0x0085;   ->;ff02::2;0x0000;NRS;221;;1;70;70
2023-04-12.08:37:11.970257;0.000000;ipv6-icmp;fe80::a00:27ff:fe6a:3ef;0x0085;   ->;ff02::2;0x0000;NRS;0;;1;70;70
2023-04-12.08:53:52.903546;0.000000;ipv6-icmp;fe80::a00:27ff:fe1e:90c1;0x0085;   ->;ff02::2;0x0000;NRS;0;;1;70;70
2023-04-12.09:06:10.393846;0.000000;ipv6-icmp;fe80::a00:27ff:fe40:aa65;0x0085;   ->;ff02::2;0x0000;NRS;0;;1;70;70
2023-04-12.09:13:41.507200;0.000000;ipv6-icmp;fe80::a00:27ff:fe42:90c6;0x0085;   ->;ff02::2;0x0000;NRS;221;;1;70;70
2023-04-12.09:35:08.702679;0.000000;ipv6-icmp;fe80::a00:27ff:fe76:b047;0x0085;   ->;ff02::2;0x0000;NRS;0;;1;70;70
2023-04-12.09:39:35.299768;0.000000;arp;10.35.56.10;;  who;10.35.56.11;;INT;;;1;60;60
2023-04-12.09:40:34.148432;0.000000;ipv6-icmp;fe80::a00:27ff:fe6a:3ef;0x0085;   ->;ff02::2;0x0000;NRS;0;;1;70;70
2023-04-12.09:55:03.498684;0.000000;ipv6-icmp;fe80::a00:27ff:fe1e:90c1;0x0085;   ->;ff02::2;0x0000;NRS;0;;1;70;70
2023-04-12.10:09:40.910259;0.000000;ipv6-icmp;fe80::a00:27ff:fe42:90c6;0x0085;   ->;ff02::2;0x0000;NRS;221;;1;70;70
2023-04-12.10:11:42.774443;0.000000;ipv6-icmp;fe80::a00:27ff:fe40:aa65;0x0085;   ->;ff02::2;0x0000;NRS;0;;1;70;70
2023-04-12.10:25:33.754292;0.000048;arp;10.35.56.10;;  who;10.35.56.13;;CON;;;2;102;60
2023-04-12.10:25:33.755054;4.418354;tcp;10.35.56.10;41688;   ->;10.35.56.13;22;CON;16;16;39;9055;4206
2023-04-12.10:25:38.848411;4.673962;tcp;10.35.56.10;41688;   ->;10.35.56.13;22;CON;16;16;41;3650;2184
2023-04-12.10:25:44.399996;2.484997;tcp;10.35.56.10;41688;   ->;10.35.56.13;22;FIN;16;16;40;7360;2034
2023-04-12.10:38:29.781835;0.000000;ipv6-icmp;fe80::a00:27ff:fe76:b047;0x0085;   ->;ff02::2;0x0000;NRS;0;;1;70;70
2023-04-12.10:43:55.227374;0.000000;ipv6-icmp;fe80::a00:27ff:fe6a:3ef;0x0085;   ->;ff02::2;0x0000;NRS;0;;1;70;70
2023-04-12.11:00:35.648907;0.000000;ipv6-icmp;fe80::a00:27ff:fe1e:90c1;0x0085;   ->;ff02::2;0x0000;NRS;0;;1;70;70
2023-04-12.11:10:41.709979;0.000000;ipv6-icmp;fe80::a00:27ff:fe40:aa65;0x0085;   ->;ff02::2;0x0000;NRS;0;;1;70;70
2023-04-12.11:14:32.631162;0.000000;ipv6-icmp;fe80::a00:27ff:fe42:90c6;0x0085;   ->;ff02::2;0x0000;NRS;221;;1;70;70
2023-04-12.11:44:01.931552;0.000000;ipv6-icmp;fe80::a00:27ff:fe76:b047;0x0085;   ->;ff02::2;0x0000;NRS;0;;1;70;70
2023-04-12.11:47:16.307840;0.000000;ipv6-icmp;fe80::a00:27ff:fe6a:3ef;0x0085;   ->;ff02::2;0x0000;NRS;0;;1;70;70
2023-04-12.12:06:07.798813;0.000000;ipv6-icmp;fe80::a00:27ff:fe1e:90c1;0x0085;   ->;ff02::2;0x0000;NRS;0;;1;70;70
2023-04-12.12:09:25.184956;0.000000;ipv6-icmp;fe80::a00:27ff:fe42:90c6;0x0085;   ->;ff02::2;0x0000;NRS;221;;1;70;70
2023-04-12.12:11:51.717168;0.000000;ipv6-icmp;fe80::a00:27ff:fe40:aa65;0x0085;   ->;ff02::2;0x0000;NRS;0;;1;70;70
2023-04-12.12:45:11.938346;0.000000;ipv6-icmp;fe80::a00:27ff:fe76:b047;0x0085;   ->;ff02::2;0x0000;NRS;0;;1;70;70
2023-04-12.12:46:15.245106;0.000000;ipv6-icmp;fe80::a00:27ff:fe6a:3ef;0x0085;   ->;ff02::2;0x0000;NRS;0;;1;70;70
2023-04-12.13:07:17.813807;0.000000;ipv6-icmp;fe80::a00:27ff:fe1e:90c1;0x0085;   ->;ff02::2;0x0000;NRS;0;;1;70;70
2023-04-12.13:08:39.580658;0.000000;ipv6-icmp;fe80::a00:27ff:fe40:aa65;0x0085;   ->;ff02::2;0x0000;NRS;0;;1;70;70
2023-04-12.13:14:59.680706;0.000000;ipv6-icmp;fe80::a00:27ff:fe42:90c6;0x0085;   ->;ff02::2;0x0000;NRS;221;;1;70;70
2023-04-12.13:44:10.873486;0.000000;ipv6-icmp;fe80::a00:27ff:fe76:b047;0x0085;   ->;ff02::2;0x0000;NRS;0;;1;70;70
2023-04-12.13:51:47.390927;0.000000;ipv6-icmp;fe80::a00:27ff:fe6a:3ef;0x0085;   ->;ff02::2;0x0000;NRS;0;;1;70;70
2023-04-12.14:06:16.741181;0.000000;ipv6-icmp;fe80::a00:27ff:fe1e:90c1;0x0085;   ->;ff02::2;0x0000;NRS;0;;1;70;70
2023-04-12.14:14:11.730363;0.000000;ipv6-icmp;fe80::a00:27ff:fe40:aa65;0x0085;   ->;ff02::2;0x0000;NRS;0;;1;70;70
2023-04-12.14:14:42.025052;0.000000;ipv6-icmp;fe80::a00:27ff:fe42:90c6;0x0085;   ->;ff02::2;0x0000;NRS;221;;1;70;70
2023-04-12.14:40:58.737149;0.000000;ipv6-icmp;fe80::a00:27ff:fe76:b047;0x0085;   ->;ff02::2;0x0000;NRS;0;;1;70;70
2023-04-12.14:42:26.102843;0.019942;udp;10.35.56.13;47968;  <->;8.8.8.8;53;CON;0;0;2;252;86
2023-04-12.14:42:26.103540;0.019246;udp;10.35.56.13;58173;  <->;8.8.8.8;53;CON;0;0;2;312;86
2023-04-12.14:42:26.126579;4.027798;tcp;10.35.56.13;42988;   ->;34.254.182.186;443;RST;0;0;27;7924;1726
2023-04-12.14:42:31.157794;0.000034;arp;10.35.56.10;;  who;10.35.56.13;;CON;;;2;102;60
2023-04-12.14:55:08.469839;0.000000;ipv6-icmp;fe80::a00:27ff:fe6a:3ef;0x0085;   ->;ff02::2;0x0000;NRS;0;;1;70;70
2023-04-12.15:05:15.676577;0.000000;ipv6-icmp;fe80::a00:27ff:fe1e:90c1;0x0085;   ->;ff02::2;0x0000;NRS;0;;1;70;70
2023-04-12.15:19:42.148770;0.000000;ipv6-icmp;fe80::a00:27ff:fe42:90c6;0x0085;   ->;ff02::2;0x0000;NRS;221;;1;70;70
2023-04-12.15:19:43.880671;0.000000;ipv6-icmp;fe80::a00:27ff:fe40:aa65;0x0085;   ->;ff02::2;0x0000;NRS;0;;1;70;70
2023-04-12.15:37:10.765619;0.012909;udp;10.35.56.13;58306;  <->;8.8.8.8;53;CON;0;0;2;238;87
2023-04-12.15:37:10.768801;0.009727;udp;10.35.56.13;52487;  <->;8.8.8.8;53;CON;0;0;2;238;87
2023-04-12.15:37:10.790237;4.426975;tcp;10.35.56.13;33308;   ->;185.125.188.54;443;CON;0;0;67;43173;14927
2023-04-12.15:37:11.390577;0.021485;udp;10.35.56.13;58747;  <->;8.8.8.8;53;CON;0;0;2;238;87
2023-04-12.15:37:11.414266;0.148717;tcp;10.35.56.13;44944;   ->;185.125.188.55;443;CON;0;0;19;7623;2212
2023-04-12.15:37:11.564008;0.027145;udp;10.35.56.13;40240;  <->;8.8.8.8;53;CON;0;0;2;270;111
2023-04-12.15:37:11.564202;0.026951;udp;10.35.56.13;41160;  <->;8.8.8.8;53;CON;0;0;2;283;111
2023-04-12.15:37:11.592534;1.513549;tcp;10.35.56.13;40668;   ->;185.125.190.27;443;CON;0;0;7329;9561856;74544
2023-04-12.15:37:15.881637;0.000029;arp;10.35.56.10;;  who;10.35.56.13;;CON;;;2;102;60
2023-04-12.15:37:16.565904;0.021378;tcp;10.35.56.13;44944;   ->;185.125.188.55;443;RST;0;0;7;498;222
2023-04-12.15:37:18.653520;0.017192;tcp;10.35.56.13;40668;   ->;185.125.190.27;443;RST;0;0;4;276;120
2023-04-12.15:37:18.654083;0.016736;tcp;10.35.56.13;33308;   ->;185.125.188.54;443;RST;0;0;4;276;120
2023-04-12.15:37:24.441530;0.012467;udp;10.35.56.13;48314;  <->;8.8.8.8;53;CON;0;0;2;238;87
2023-04-12.15:37:24.455532;0.142169;tcp;10.35.56.13;36636;   ->;185.125.188.55;443;CON;0;0;19;7615;2210
2023-04-12.15:37:24.598932;0.010771;udp;10.35.56.13;43531;  <->;8.8.8.8;53;CON;0;0;2;254;111
2023-04-12.15:37:24.599631;0.013877;udp;10.35.56.13;43515;  <->;8.8.8.8;53;CON;0;0;2;283;111
2023-04-12.15:37:24.614509;1.001809;tcp;10.35.56.13;58736;   ->;91.189.91.43;443;CON;0;0;3263;3600080;63168
2023-04-12.15:37:27.338278;0.009703;udp;10.35.56.13;46012;  <->;8.8.8.8;53;CON;0;0;2;238;87
2023-04-12.15:37:27.349391;4.024271;tcp;10.35.56.13;56870;   ->;185.125.188.55;443;CON;0;0;33;18116;7307
2023-04-12.15:37:29.598573;0.020008;tcp;10.35.56.13;36636;   ->;185.125.188.55;443;RST;0;0;7;498;222
2023-10-20.21:32:56.682597;1.008618;man;0;0;;37;1;STP;;;0;11068316;0
